{
    "[go]": {
        "editor.formatOnSave": true,
        "editor.formatOnSaveTimeout": 2500,
        "editor.insertSpaces": false
    },
    "[ruby]": {
        "editor.tabSize": 2,
    },
    "[scss]": {
        "editor.tabSize": 2,
    },
    "breadcrumbs.enabled": true,
    "editor.dragAndDrop": false,
    "editor.fontFamily": "'fira code'",
    "editor.fontSize": 15,
    "editor.formatOnPaste": true,
    "editor.insertSpaces": true,
    "editor.minimap.enabled": false,
    "editor.multiCursorModifier": "ctrlCmd",
    "editor.renderIndentGuides": true,
    "editor.scrollBeyondLastLine": false,
    "editor.snippetSuggestions": "top",
    "editor.tabSize": 4,
    "go.autocompleteUnimportedPackages": true,
    "go.buildOnSave": "off",
    "go.formatTool": "goimports",
    "go.gotoSymbol.includeImports": true,
    "go.inferGopath": true,
    "go.languageServerExperimentalFeatures": {
        "autoComplete": true,
        "format": true
    },
    "go.lintOnSave": "file",
    "go.liveErrors": {
        "delay": 500,
        "enabled": false
    },
    "go.useCodeSnippetsOnFunctionSuggest": true,
    "go.useLanguageServer": true,
    "telemetry.enableCrashReporter": false,
    "telemetry.enableTelemetry": false,
    "terminal.integrated.fontSize": 15,
    "terminal.integrated.rendererType": "dom",
    "todohighlight.include": [
        "**/*.go",
        "**/*.js",
        "**/*.rb",
    ],
    "todohighlight.keywords": [
        "DEBUG:",
        "FIXME:",
        "REVIEW:",
        {
            "backgroundColor": "#d35400",
            "color": "white",
            "text": "TODO:"
        },
        {
            "backgroundColor": "yellow",
            "color": "#ff0000",
            "overviewRulerColor": "grey",
            "text": "NOTE:"
        },
        {
            "color": "#000",
            "isWholeLine": false,
            "text": "HACK:"
        }
    ],
    "window.zoomLevel": 0,
    "workbench.editor.highlightModifiedTabs": true,
    "go.lintTool": "golangci-lint",
    "editor.find.addExtraSpaceOnTop": false,
    "editor.fontLigatures": true,
    "debug.console.fontSize": 13
}